lab4/DVEfiles/dve_gui.log
Chronologic VCS simulator copyright 1991-2019
Contains Synopsys proprietary information.
Compiler version P-2019.06-SP2-1_Full64; Runtime version P-2019.06-SP2-1_Full64;  Oct 10 14:53 2023
VCD+ Writer P-2019.06-SP2-1_Full64 Copyright (c) 1991-2019 by Synopsys Inc.
The file '/DCNFS/users/student/kmujtaba/elen127/labs/lab3/inter.vpd' was opened successfully.
Start of the bcd adder test
Basic Read and Write
Ra0= 0, Ra1= 0, Wa =  1, Wd=  1, We=1, Rd0=  0,Rd1=  0, @                   80
Ra0= 1, Ra1= 1, Wa =  2, Wd=  2, We=1, Rd0=  1,Rd1=  1, @                   90
Ra0= 2, Ra1= 1, Wa =  3, Wd=  3, We=1, Rd0=  2,Rd1=  1, @                  100
Ra0= 2, Ra1= 3, Wa =  0, Wd=  4, We=1, Rd0=  2,Rd1=  3, @                  110
Ra0= 0, Ra1= 0, Wa =  0, Wd=  0, We=0, Rd0=  4,Rd1=  4, @                  120
Bypass mode
Ra0= 0, Ra1= 7, Wa =  0, Wd=  0, We=1, Rd0=  0,Rd1=  0, @                  130
Ra0= 7, Ra1= 5, Wa =  7, Wd=255, We=1, Rd0=255,Rd1=  0, @                  140
Ra0= 7, Ra1= 7, Wa =  0, Wd=  0, We=0, Rd0=  0,Rd1=  0, @                  150
Ra0= 5, Ra1= 6, Wa =  5, Wd=  5, We=1, Rd0=  5,Rd1=  0, @                  160
Ra0= 5, Ra1= 6, Wa =  6, Wd=200, We=1, Rd0=  0,Rd1=200, @                  170
Read Data No Write
Ra0= 7, Ra1= 6, Wa =  7, Wd=111, We=0, Rd0=  0,Rd1=  0, @                  180
Ra0= 7, Ra1= 7, Wa =  2, Wd=111, We=0, Rd0=  0,Rd1=  0, @                  190
Ra0= 2, Ra1= 6, Wa =  3, Wd=111, We=0, Rd0=  2,Rd1=  0, @                  200
Ra0= 2, Ra1= 3, Wa =  2, Wd=111, We=0, Rd0=  2,Rd1=  3, @                  210
Back to Write
Ra0= 3, Ra1= 2, Wa =  4, Wd=100, We=1, Rd0=  3,Rd1=  2, @                  220
Ra0= 3, Ra1= 4, Wa =  6, Wd=101, We=1, Rd0=  3,Rd1=  0, @                  230
Ra0= 5, Ra1= 4, Wa =  7, Wd=102, We=1, Rd0=  0,Rd1=  0, @                  240
$finish called from file "tbrf.v", line 83.
$finish at simulation time                  250
Simulation complete, time is 250.
           V C S   S i m u l a t i o n   R e p o r t 
Time: 250
CPU Time:      0.380 seconds;       Data structure size:   0.0Mb
Tue Oct 10 15:00:09 2023
